{
  "swagger": "2.0",
  "info": {
    "version": "0.0.1-SNAPSHOT",
    "title": "PSPBeckend"
  },
  "host": "stage2-backend-psp.rummycircle.com/psp_beckend/api",
  "basePath": "/",
  "schemes": [
    "https",
    "http"
  ],
  "tags": [
    {
      "name": "DEVELOPMENT",
      "description": "APIs are in DEVELOPMENT."
    },
    {
      "name": "PRODUCTION",
      "description": "APIs Available in PRODUCTION."
    }
  ],
  "paths": {
    "/fraud/updatedevice/{deviceId}": {
      "post": {
        "tags": [
          "PRODUCTION"
        ],
        "consumes": [
          "application/json"
        ],
        "produces": [
          "application/json"
        ],
        "description": "This API is used to changes status of a device. Device status can be updated to blacklist or whitelist or normallist by calling the API in UMS.",
        "parameters": [
          {
            "name": "deviceId",
            "in": "path",
            "required": true,
            "type": "string"
          },
          {
            "name": "agentId",
            "in": "query",
            "required": true,
            "type": "string"
          },
          {
            "name": "status",
            "in": "query",
            "required": true,
            "type": "integer"
          }
        ],
        "responses": {
          "200": {
            "description": "Success response OK",
            "headers": {},
            "schema": {
              "type": "string",
              "example": "{status :success}"
            }
          },
          "400": {
            "description": "BAD_REQUEST",
            "headers": {},
            "schema": {
              "type": "object",
              "properties": {
                "ErrorCode": {
                  "type": "integer"
                },
                "ErrorMessage": {
                  "type": "string"
                }
              }
            },
            "examples": {
              "response1": {
                "ErrorCode": "730",
                "ErrorMessage": "Invalid status. It can not be zero or negative."
              },
              "response2": {
                "ErrorCode": "737",
                "ErrorMessage": "Invalid agent .It can not be Null or empty."
              },
              "response3": {
                "ErrorCode": "736",
                "ErrorMessage": "Invalid deviceId .It can not be Null or empty."
              }
            }
          },
          "500": {
            "description": "INTERNAL_SERVER_ERROR",
            "headers": {},
            "schema": {
              "type": "object",
              "properties": {
                "ErrorCode": {
                  "type": "integer"
                },
                "ErrorMessage": {
                  "type": "string"
                }
              }
            },
            "examples": {
              "response1": {
                "ErrorCode": "200",
                "ErrorMessage": "user service call failed"
              },
              "response2": {
                "ErrorCode": "100",
                "ErrorMessage": "Unable to process data"
              }
            }
          }
        }
      }
    },
    "/account/close": {
      "post": {
        "tags": [
          "PRODUCTION"
        ],
        "consumes": [
          "application/json"
        ],
        "produces": [
          "application/json"
        ],
        "description": "This API is used to changes status of a player to CLOSED(6). Internally it stores data in playerupdates,changes account status by calling UMS,stores data in pspcomments and also in block_users_mapping tables.\nNOTE - When source is PSP call to UMS is done.",
        "parameters": [
          {
            "name": "body",
            "in": "body",
            "required": true,
            "description": "Payload for this API is as below.",
            "schema": {
              "type": "object",
              "properties": {
                "context": {
                  "type": "object",
                  "properties": {
                    "agentId": {
                      "type": "integer",
                      "example": 200
                    },
                    "source": {
                      "type": "string",
                      "example": "UMS"
                    }
                  }
                },
                "value": {
                  "properties": {
                    "userId": {
                      "type": "integer",
                      "example": 200
                    },
                    "blockheaderid": {
                      "type": "integer",
                      "example": 9
                    },
                    "status": {
                      "type": "integer",
                      "example": 6
                    },
                    "comment": {
                      "type": "string",
                      "example": "test"
                    },
                    "header": {
                      "type": "string",
                      "example": "test"
                    },
                    "messagetouser": {
                      "type": "string",
                      "example": "Kindly contact RummyCircle  support team"
                    },
                    "pspdata": {
                      "type": "object",
                      "properties": {
                        "department": {
                          "type": "string",
                          "example": "department"
                        },
                        "issue_catagory": {
                          "type": "string",
                          "example": "issue_catagory"
                        }
                      }
                    }
                  }
                }
              }
            }
          }
        ],
        "responses": {
          "200": {
            "description": "Success response OK",
            "headers": {},
            "schema": {
              "type": "string",
              "example": "{status :success}"
            }
          },
          "400": {
            "description": "BAD_REQUEST",
            "headers": {},
            "schema": {
              "type": "object",
              "properties": {
                "ErrorCode": {
                  "type": "integer"
                },
                "ErrorMessage": {
                  "type": "string"
                }
              }
            },
            "examples": {
              "response1": {
                "ErrorCode": "4",
                "ErrorMessage": "value Missing from Payload"
              },
              "response2": {
                "ErrorCode": "101",
                "ErrorMessage": "Payload not available"
              },
              "response3": {
                "ErrorCode": "718",
                "ErrorMessage": "context Missing from Payload"
              },
              "response4": {
                "ErrorCode": "102",
                "ErrorMessage": "Payload not in Json Format"
              },
              "response5": {
                "ErrorCode": "700",
                "ErrorMessage": "Invalid UserId"
              },
              "response6": {
                "ErrorCode": "704",
                "ErrorMessage": "Invalid status value .It Can not be NULL"
              },
              "response7": {
                "ErrorCode": "708",
                "ErrorMessage": "Invalid comment value .It Can not be NULL."
              },
              "response8": {
                "ErrorCode": "733",
                "ErrorMessage": "Invalid blockheaderid .It can not be Null or empty."
              },
              "response9": {
                "ErrorCode": "734",
                "ErrorMessage": "Invalid header .It can not be Null or empty."
              },
              "response10": {
                "ErrorCode": "735",
                "ErrorMessage": "Invalid messagetouser .It can not be Null or empty."
              }
            }
          },
          "500": {
            "description": "INTERNAL_SERVER_ERROR",
            "headers": {},
            "schema": {
              "type": "object",
              "properties": {
                "ErrorCode": {
                  "type": "integer"
                },
                "ErrorMessage": {
                  "type": "string"
                }
              }
            },
            "examples": {
              "response1": {
                "ErrorCode": "100",
                "ErrorMessage": "Unable to process data"
              },
              "response2": {
                "ErrorCode": "738",
                "ErrorMessage": "ERROR while processing close user."
              }
            }
          }
        }
      }
    },
    "/kyc": {
      "post": {
        "tags": [
          "PRODUCTION"
        ],
        "consumes": [
          "application/json"
        ],
        "produces": [
          "application/json"
        ],
        "description": "This API is used to changes status of a player to KYC_VERIFIED,KYC_REJECTED,KYC REVERIFIED. Status is decided on the basis of type parameter. If it's true we set the status to KYC_VERIFIED else it will be marked as KYC_REJECTED. If isKycReVerified is sent as true then we mark KYC REVERIFIED. This API is called from PSP or AVS. isKycReVerified field has higher preference than type  and isKycReVerified is only sent from PSP. ",
        "parameters": [
          {
            "name": "body",
            "in": "body",
            "required": true,
            "description": "Payload for this API is as below.",
            "schema": {
              "type": "object",
              "properties": {
                "context": {
                  "type": "object",
                  "properties": {
                    "agentId": {
                      "type": "integer",
                      "example": 200
                    },
                    "source": {
                      "type": "string",
                      "example": "PSP/AVS"
                    }
                  }
                },
                "value": {
                  "properties": {
                    "userId": {
                      "type": "integer",
                      "example": 200
                    },
                    "type": {
                      "type": "boolean",
                      "example": true
                    },
                    "statusComment": {
                      "type": "string",
                      "example": "AVS: Forwarded by AVS due to failure"
                    },
                    "docType": {
                      "type": "integer",
                      "example": 2
                    },
                    "isKycReVerified": {
                        "type": "boolean",
                      	"example": true
                     },
                    "data": {
                      "type": "object",
                      "properties": {
                        "documentId": {
                          "type": "string",
                          "example": "87576576"
                        },
                        "fullname": {
                          "type": "string",
                          "example": "Murali Mohanty"
                        },
                        "dob": {
                          "type": "string",
                          "example": "2006-01-02"
                        },
                        "yob": {
                          "type": "string",
                          "example": "1986"
                        },
                        "pincode": {
                          "type": "string",
                          "example": "400064"
                        },
						"state": {
                          "type": "string",
                          "example": "Maharashtra"
                        },
						"address": {
                          "type": "string",
                          "example": "AT/PO vinay Nagar"
                        }
                    },
                    "pspdata": {
                      "type": "object",
                      "properties": {
                        "department": {
                          "type": "string",
                          "example": "department"
                        },
                        "issue_catagory": {
                          "type": "string",
                          "example": "issue_catagory"
                        }
                      }
                    }
                  }
                }
              }
            }
          }
         }
        ],
        "responses": {
          "200": {
            "description": "Success response OK",
            "headers": {},
            "schema": {
              "type": "string",
              "example": "{status :success}"
            }
          },
          "400": {
            "description": "BAD_REQUEST",
            "headers": {},
            "schema": {
              "type": "object",
              "properties": {
                "ErrorCode": {
                  "type": "integer"
                },
                "ErrorMessage": {
                  "type": "string"
                }
              }
            },
            "examples": {
              "response1": {
                "ErrorCode": "4",
                "ErrorMessage": "value Missing from Payload"
              },
              "response2": {
                "ErrorCode": "101",
                "ErrorMessage": "Payload not available"
              },
              "response3": {
                "ErrorCode": "718",
                "ErrorMessage": "context Missing from Payload"
              },
              "response4": {
                "ErrorCode": "102",
                "ErrorMessage": "Payload not in Json Format"
              },
              "response5": {
                "ErrorCode": "723",
                "ErrorMessage": "type not in boolean format"
              },
              "response6": {
                "ErrorCode": "721",
                "ErrorMessage": "type Missing from Payload"
              },
              "response7": {
                "ErrorCode": "711",
                "ErrorMessage": "userId Missing from Payload"
              },
              "response8": {
                "ErrorCode": "720",
                "ErrorMessage": "data Missing from Payload "
              },
              "response9": {
                "ErrorCode": "726",
                "ErrorMessage": "docType Missing from Payload"
              },
              "response10": {
                "ErrorCode": "722",
                "ErrorMessage": "statusComment Missing from Payload"
              }
            }
          },
          "500": {
            "description": "INTERNAL_SERVER_ERROR",
            "headers": {},
            "schema": {
              "type": "object",
              "properties": {
                "ErrorCode": {
                  "type": "integer"
                },
                "ErrorMessage": {
                  "type": "string"
                }
              }
            },
            "examples": {
              "response1": {
                "ErrorCode": "100",
                "ErrorMessage": "Unable to process data"
              },
              "response2": {
                "ErrorCode": "711",
                "ErrorMessage": "Error while processing KYC Request"
              },
              "response3": {
                "ErrorCode": "717",
                "ErrorMessage": "Error while processing KYC REJECT Request"
              },
              "response4": {
                "ErrorCode": "715",
                "ErrorMessage": "ERROR while getting depositLimit in limit service"
              },
              "response5": {
                "ErrorCode": "712",
                "ErrorMessage": "ERROR while fetching data from user Upload log."
              },
              "response6": {
                "ErrorCode": "724",
                "ErrorMessage": "ERROR while fetching data from idkyc table."
              },
              "response7": {
                "ErrorCode": "200",
                "ErrorMessage": "Invalid UserId"
              },
              "response8": {
                "ErrorCode": "200",
                "ErrorMessage": "Invalid UserId"
              },
              "response9": {
                "ErrorCode": "200",
                "ErrorMessage": "Error while processing KYC Request."
              },
              "response10": {
                "ErrorCode": "709",
                "ErrorMessage": "Error while saving IDFY data . "
              },
              "response11": {
                "ErrorCode": "725",
                "ErrorMessage": "Error while updating IDkyc status table."
              },
              "response12": {
                "ErrorCode": "713",
                "ErrorMessage": "ERROR while Updating user Upload log."
              },
              "response13": {
                "ErrorCode": "723",
                "ErrorMessage": "ERROR while updating depositLimit in limit service. "
              },
              "response14": {
                "ErrorCode": "200",
                "ErrorMessage": "ERROR while updating users kyc and account status."
              },
              "response15": {
                "ErrorCode": "760",
                "ErrorMessage": "Error while processing KYC RE VERIFICATION  Request."
              }

            }
          }
        }
      }
    },
    "/account/block": {
      "post": {
        "tags": [
          "PRODUCTION"
        ],
        "consumes": [
          "application/json"
        ],
        "produces": [
          "application/json"
        ],
        "description": "This API is used to changes status of a player to BLOCKED(5). Internally it stores data in playerupdates,changes account status by calling UMS,stores data in pspcomments and also in block_users_mapping tables.\nNOTE - When source is PSP call to UMS is done.",
        "parameters": [
          {
            "name": "body",
            "in": "body",
            "required": true,
            "description": "Payload for this API is as below.",
            "schema": {
              "type": "object",
              "properties": {
                "context": {
                  "type": "object",
                  "properties": {
                    "agentId": {
                      "type": "integer",
                      "example": 200
                    },
                    "source": {
                      "type": "string",
                      "example": "UMS"
                    }
                  }
                },
                "value": {
                  "properties": {
                    "userId": {
                      "type": "integer",
                      "example": 200
                    },
                    "blockheaderid": {
                      "type": "integer",
                      "example": 9
                    },
                    "status": {
                      "type": "integer",
                      "example": 5
                    },
                    "comment": {
                      "type": "string",
                      "example": "test"
                    },
                    "header": {
                      "type": "string",
                      "example": "test"
                    },
                    "messagetouser": {
                      "type": "string",
                      "example": "Kindly contact RummyCircle  support team"
                    },
                    "pspdata": {
                      "type": "object",
                      "properties": {
                        "department": {
                          "type": "string",
                          "example": "department"
                        },
                        "issue_catagory": {
                          "type": "string",
                          "example": "issue_catagory"
                        }
                      }
                    }
                  }
                }
              }
            }
          }
        ],
        "responses": {
          "200": {
            "description": "Success response OK",
            "headers": {},
            "schema": {
              "type": "string",
              "example": "{status :success}"
            }
          },
          "400": {
            "description": "BAD_REQUEST",
            "headers": {},
            "schema": {
              "type": "object",
              "properties": {
                "ErrorCode": {
                  "type": "integer"
                },
                "ErrorMessage": {
                  "type": "string"
                }
              }
            },
            "examples": {
              "response1": {
                "ErrorCode": "4",
                "ErrorMessage": "value Missing from Payload"
              },
              "response2": {
                "ErrorCode": "101",
                "ErrorMessage": "Payload not available"
              },
              "response3": {
                "ErrorCode": "718",
                "ErrorMessage": "context Missing from Payload"
              },
              "response4": {
                "ErrorCode": "102",
                "ErrorMessage": "Payload not in Json Format"
              },
              "response5": {
                "ErrorCode": "700",
                "ErrorMessage": "Invalid UserId"
              },
              "response6": {
                "ErrorCode": "704",
                "ErrorMessage": "Invalid status value .It Can not be NULL"
              },
              "response7": {
                "ErrorCode": "708",
                "ErrorMessage": "Invalid comment value .It Can not be NULL."
              },
              "response8": {
                "ErrorCode": "733",
                "ErrorMessage": "Invalid blockheaderid .It can not be Null or empty."
              },
              "response9": {
                "ErrorCode": "734",
                "ErrorMessage": "Invalid header .It can not be Null or empty."
              },
              "response10": {
                "ErrorCode": "735",
                "ErrorMessage": "Invalid messagetouser .It can not be Null or empty."
              }
            }
          },
          "500": {
            "description": "INTERNAL_SERVER_ERROR",
            "headers": {},
            "schema": {
              "type": "object",
              "properties": {
                "ErrorCode": {
                  "type": "integer"
                },
                "ErrorMessage": {
                  "type": "string"
                }
              }
            },
            "examples": {
              "response1": {
                "ErrorCode": "100",
                "ErrorMessage": "Unable to process data"
              },
              "response2": {
                "ErrorCode": "729",
                "ErrorMessage": "ERROR while processing block user."
              }
            }
          }
        }
      }
    },
     "/account/unblock": {
      "post": {
        "tags": [
          "PRODUCTION"
        ],
        "consumes": [
          "application/json"
        ],
        "produces": [
          "application/json"
        ],
        "description": "This API is used to update playerupdates ,pspcomments and auditing of a player when status is changed  to 1 or 2 or 4. It is called from UMS.",
        "parameters": [
          {
            "name": "body",
            "in": "body",
            "required": true,
            "description": "Payload for this API is as below.",
            "schema": {
              "type": "object",
              "properties": {
                "context": {
                  "type": "object",
                  "properties": {
                    "agentId": {
                      "type": "integer",
                      "example": 200
                    },
                    "source": {
                      "type": "string",
                      "example": "UMS"
                    }
                  }
                },
                "value": {
                  "properties": {
                    "userId": {
                      "type": "integer",
                      "example": 200
                    },
                    "prevStatus": {
                      "type": "integer",
                      "example": 1
                    },
                    "status": {
                      "type": "integer",
                      "example": 2
                    },
                    "comment": {
                      "type": "string",
                      "example": "test"
                    },
                    "pspdata": {
                      "type": "object",
                      "properties": {
                        "department": {
                          "type": "string",
                          "example": "department"
                        },
                        "issue_catagory": {
                          "type": "string",
                          "example": "issue_catagory"
                        }
                      }
                    }
                  }
                }
              }
            }
          }
        ],
        "responses": {
          "200": {
            "description": "Success response OK",
            "headers": {},
            "schema": {
              "type": "string",
              "example": "{status :success}"
            }
          },
          "400": {
            "description": "BAD_REQUEST",
            "headers": {},
            "schema": {
              "type": "object",
              "properties": {
                "ErrorCode": {
                  "type": "integer"
                },
                "ErrorMessage": {
                  "type": "string"
                }
              }
            },
            "examples": {
              "response1": {
                "ErrorCode": "4",
                "ErrorMessage": "value Missing from Payload"
              },
              "response2": {
                "ErrorCode": "101",
                "ErrorMessage": "Payload not available"
              },
              "response3": {
                "ErrorCode": "718",
                "ErrorMessage": "context Missing from Payload"
              },
              "response4": {
                "ErrorCode": "102",
                "ErrorMessage": "Payload not in Json Format"
              },
              "response5": {
                "ErrorCode": "700",
                "ErrorMessage": "Invalid UserId"
              },
              "response6": {
                "ErrorCode": "704",
                "ErrorMessage": "Invalid status value .It Can not be NULL"
              },
              "response7": {
                "ErrorCode": "740",
                "ErrorMessage": "Invalid prevStatus value ."
              }
            }
          },
          "500": {
            "description": "INTERNAL_SERVER_ERROR",
            "headers": {},
            "schema": {
              "type": "object",
              "properties": {
                "ErrorCode": {
                  "type": "integer"
                },
                "ErrorMessage": {
                  "type": "string"
                }
              }
            },
            "examples": {
              "response1": {
                "ErrorCode": "100",
                "ErrorMessage": "Unable to process data"
              },
              "response2": {
                "ErrorCode": "739",
                "ErrorMessage": "ERROR while unblocking user."
              }
            }
          }
        }
      }
    },
    "/fraud/getdevice": {
      "get": {
        "tags": [
          "PRODUCTION"
        ],
        "consumes": [],
        "produces": [
          "application/json"
        ],
        "description": "This API is used to fetch BlackListed or WhiteListed Device data.We can also use this API to find data for a perticular device. Internally it calls UMS to get data from mongo.",
        "parameters": [
          {
            "type": "integer",
            "name": "status",
            "in": "query",
            "required": true,
            "default": 1,
            "description": "This field is a required field .(1- Blacklist, 2- Whitelist Device)"
          },
          {
            "type": "string",
            "name": "deviceId",
            "in": "query",
            "description": "Thif field is requied if want details for a perticular device."
          },
          {
            "type": "integer",
            "name": "limit",
            "in": "query"
          },
          {
            "type": "integer",
            "name": "offset",
            "in": "query"
          }
        ],
        "responses": {
          "200": {
            "description": "OK",
            "headers": {},
            "schema": {
              "type": "object",
              "properties": {
                "totalRows": {
                  "type": "integer",
                  "example": 10
                },
                "nextOffset": {
                  "type": "integer",
                  "example": 10
                },
                "hasMoreRows": {
                  "type": "boolean",
                  "example": true
                },
                "deviceInfo": {
                  "type": "array",
                  "items": {
                    "type": "object",
                    "properties": {
                      "blacklistedTime": {
                        "type": "string",
                        "example": "2019-01-25T15:35:00.000Z"
                      },
                      "agent": {
                        "type": "string",
                        "example": "namrata1"
                      },
                      "updateTime": {
                        "type": "string",
                        "example": "2019-01-25T15:35:00.000Z"
                      },
                      "_id": {
                        "type": "string",
                        "example": "abc123"
                      },
                      "status": {
                        "type": "integer",
                        "example": 1
                      }
                    }
                  },
                  "example": [
                    {
                      "blacklistedTime": "2019-01-25 15:35:00",
                      "agent": "abc",
                      "_id": "abc123",
                      "updateTime": "2019-01-25 15:35:01",
                      "status": 1
                    },
                    {
                      "blacklistedTime": "2019-01-25 15:35:00",
                      "agent": "abc",
                      "_id": "abc123",
                      "updateTime": "2019-01-25 15:35:01",
                      "status": 1
                    }
                  ]
                }
              }
            }
          },
          "400": {
            "description": "BAD_REQUEST",
            "headers": {},
            "schema": {
              "type": "object",
              "properties": {
                "ErrorCode": {
                  "type": "integer"
                },
                "ErrorMessage": {
                  "type": "string"
                }
              }
            },
            "examples": {
              "response1": {
                "ErrorCode": "730",
                "ErrorMessage": "Invalid status. It can not be zero or negative."
              },
              "response2": {
                "ErrorCode": "731",
                "ErrorMessage": "Invalid limit. It can not be negative."
              },
              "response3": {
                "ErrorCode": "732",
                "ErrorMessage": "Invalid offset. It can not be negative."
              }
            }
          },
          "500": {
            "description": "INTERNAL_SERVER_ERROR",
            "headers": {},
            "schema": {
              "type": "object",
              "properties": {
                "ErrorCode": {
                  "type": "integer"
                },
                "ErrorMessage": {
                  "type": "string"
                }
              }
            },
            "examples": {
              "response1": {
                "ErrorCode": "100",
                "ErrorMessage": "Unable to process data"
              },
              "response2": {
                "ErrorCode": "200",
                "ErrorMessage": "user service call failed"
              }
            }
          }
        }
      }
    },
     "/getbankdetails/{userId}": {
      "get": {
        "tags": [
          "PRODUCTION"
        ],
        "consumes": [
          "application/json"
        ],
        "produces": [
          "application/json"
        ],
        "description": "This API is used to get PLayer Bank details from Withdraw service",
        "parameters": [],
        "responses": {
          "200": {
            "description": "Success response OK",
            "headers": {},
            "schema": {
               "type":"array",
               "items": {
               "properties": {
                      "ifscCode": {
                        "type": "string",
                        "example": "UJKSAD99"
                      },
                      "bankName": {
                        "type": "string",
                        "example": "HDFC Bank"
                      },
                      "micrCode": {
                        "type": "string",
                        "example": "HDFC00007192"
                      },
                      "branchName": {
                        "type": "string",
                        "example": "MALAD LINK"
                      },
                      "contactNumber": {
                        "type": "string",
                        "example": "022-90199191"
                      },
                      "address": {
                        "type": "string",
                        "example": "address"
                      },
                      "city": {
                        "type": "string",
                        "example": "city"
                      },
                      "district": {
                        "type": "string",
                        "example": "district"
                      },
                      "state": {
                        "type": "string",
                        "example": "state"
                      },
                      "userId": {
                        "type": "integer",
                        "example": 123
                      },
                      "accountNumber": {
                        "type": "integer",
                        "example": 123232
                      },
                      "isRestrictedState": {
                        "type": "boolean",
                        "example": true
                      }
                   }
               }
		   }
          },
          "400": {
            "description": "BAD_REQUEST",
            "headers": {},
            "schema": {
              "type": "object",
              "properties": {
                "ErrorCode": {
                  "type": "integer"
                },
                "ErrorMessage": {
                  "type": "string"
                }
              }
            },
            "examples": {
              "response1": {
                "ErrorCode": "700",
                "ErrorMessage": "Invalid UserId"
              }
            }
          },
          "500": {
            "description": "INTERNAL_SERVER_ERROR",
            "headers": {},
            "schema": {
              "type": "object",
              "properties": {
                "ErrorCode": {
                  "type": "integer"
                },
                "ErrorMessage": {
                  "type": "string"
                }
              }
            },
            "examples": {
              "response1": {
                "ErrorCode": "100",
                "ErrorMessage": "Unable to process data"
              }
            }
          }
        }
      }
    },
     "/updatebankdetails/{userId}": {
      "post": {
        "tags": [
          "PRODUCTION"
        ],
        "consumes": [
          "application/json"
        ],
        "produces": [
          "application/json"
        ],
        "description": "This API is used to update PLayer Bank details from Withdraw service",
        "parameters": [
        {
            "name": "body",
            "in": "body",
            "required": true,
            "description": "Payload for this API is as below.",
            "schema": {
              "type": "object",
              "properties": {
                "context": {
                  "type": "object",
                  "properties": {
                    "source": {
                      "type": "string",
                      "example": "PSP"
                    }
                  }
                },
                "value": {
                  "properties": {
                    "agentName": {
                      "type": "String",
                      "example": "Amitab"
                    },
                    "ifscCode": {
                      "type": "String",
                      "example": "HDFC253252"
                    },
                    "accountNumber": {
                      "type": "String",
                      "example": "873823678237"
                    }
                  }
                }
              }
            }
          }
        ],
        "responses": {
          "200": {
            "description": "Success response OK",
            "headers": {},
            "schema": {}
          },
          "400": {
            "description": "BAD_REQUEST",
            "headers": {},
            "schema": {
              "type": "object",
              "properties": {
                "ErrorCode": {
                  "type": "integer"
                },
                "ErrorMessage": {
                  "type": "string"
                }
              }
            },
            "examples": {
              "response1": {
                "ErrorCode": "700",
                "ErrorMessage": "Invalid UserId"
              }
            }
          },
          "500": {
            "description": "INTERNAL_SERVER_ERROR",
            "headers": {},
            "schema": {
              "type": "object",
              "properties": {
                "ErrorCode": {
                  "type": "integer"
                },
                "ErrorMessage": {
                  "type": "string"
                }
              }
            },
            "examples": {
              "response1": {
                "ErrorCode": "4",
                "ErrorMessage": "value Missing from Payload"
              },
              "response2": {
                "ErrorCode": "101",
                "ErrorMessage": "Payload not available"
              },
              "response3": {
                "ErrorCode": "739",
                "ErrorMessage": "IFSC/AccountNumber/AgentName all should be present"
              },
              "response4": {
                "ErrorCode": "102",
                "ErrorMessage": "Payload not in Json Format"
              },
              "response5": {
                "ErrorCode": "700",
                "ErrorMessage": "Invalid UserId"
              },
              "response6": {
                "ErrorCode": "741",
                "ErrorMessage": "Withdraw service call failed"
              }
            }
          }
        }
      }
    }
  },
  "definitions": {}
}